^D:\UNIVERSIDAD\SEPTIMO SEMESTRE\SISTEMAS INTELIGENTES\NREINASPROFUNDIDAD\NREINASPROFUNDIDAD\SOURCE.CPP
/c /ZI /JMC /nologo /W3 /WX- /diagnostics:column /sdl /Od /Oy- /D _DEBUG /D _CONSOLE /D _UNICODE /D UNICODE /Gm- /EHsc /RTC1 /MDd /GS /fp:precise /permissive- /Zc:wchar_t /Zc:forScope /Zc:inline /Fo"DEBUG\\" /Fd"DEBUG\VC142.PDB" /Gd /TP /analyze- /FC D:\UNIVERSIDAD\SEPTIMO SEMESTRE\SISTEMAS INTELIGENTES\NREINASPROFUNDIDAD\NREINASPROFUNDIDAD\SOURCE.CPP
^D:\UNIVERSIDAD\SEPTIMO SEMESTRE\SISTEMAS INTELIGENTES\NREINASPROFUNDIDAD\NREINASPROFUNDIDAD\REINA.CPP
/c /ZI /JMC /nologo /W3 /WX- /diagnostics:column /sdl /Od /Oy- /D _DEBUG /D _CONSOLE /D _UNICODE /D UNICODE /Gm- /EHsc /RTC1 /MDd /GS /fp:precise /permissive- /Zc:wchar_t /Zc:forScope /Zc:inline /Fo"DEBUG\\" /Fd"DEBUG\VC142.PDB" /Gd /TP /analyze- /FC D:\UNIVERSIDAD\SEPTIMO SEMESTRE\SISTEMAS INTELIGENTES\NREINASPROFUNDIDAD\NREINASPROFUNDIDAD\REINA.CPP
