^D:\UNIVERSIDAD\SEPTIMO SEMESTRE\SISTEMAS INTELIGENTES\NREINASPROFUNDIDAD\NREINASPROFUNDIDAD\DEBUG\REINA.OBJ|D:\UNIVERSIDAD\SEPTIMO SEMESTRE\SISTEMAS INTELIGENTES\NREINASPROFUNDIDAD\NREINASPROFUNDIDAD\DEBUG\SOURCE.OBJ
D:\UNIVERSIDAD\SEPTIMO SEMESTRE\SISTEMAS INTELIGENTES\NREINASPROFUNDIDAD\DEBUG\NREINASPROFUNDIDAD.EXE
D:\UNIVERSIDAD\SEPTIMO SEMESTRE\SISTEMAS INTELIGENTES\NREINASPROFUNDIDAD\DEBUG\NREINASPROFUNDIDAD.ILK
D:\UNIVERSIDAD\SEPTIMO SEMESTRE\SISTEMAS INTELIGENTES\NREINASPROFUNDIDAD\DEBUG\NREINASPROFUNDIDAD.PDB
